^C:\USERS\USER\SOURCE\REPOS\BOPLAB3\BOPLAB3_3_2\X64\DEBUG\MAIN3.3.2.OBJ
C:\USERS\USER\SOURCE\REPOS\BOPLAB3\BOPLAB3_3_2\X64\DEBUG\BOPLAB3_3_2.ILK
C:\USERS\USER\SOURCE\REPOS\BOPLAB3\X64\DEBUG\BOPLAB3_3_2.EXE
C:\USERS\USER\SOURCE\REPOS\BOPLAB3\X64\DEBUG\BOPLAB3_3_2.PDB
